<svg viewBox="0 0 4798 4798" xmlns="http://www.w3.org/2000/svg">
	<defs>
		<style>.a{fill:none}.b{fill:#000}</style>
		<pattern height="597" id="a" patternTransform="translate(232 420)" patternUnits="userSpaceOnUse" width="597">
			<path class="a" d="M0 0h597v597H0z"/>
			<path class="a" d="M597.22 0H457.09L0 457.09v140.13h2.66L597.22 2.66V0zM459.75 597.22h137.47V459.75L459.75 597.22z"/>
			<path class="b" d="M597.22 2.66L2.66 597.22h457.09l137.47-137.47V2.66zM0 0v457.09L457.09 0H0z"/>
		</pattern>
	</defs>
	<path d="M0 0h4798v4798H0z" fill="url(#a)" opacity=".125"/>
</svg>